{
    "name": "OT_RANDOM_options",
    "description": "Random DOE from the OpenTURNS library",
    "id": "http://www.openturns.org/",
    "properties": {
        "n_samples":{
            "type":  "integer",
             "minimum": 1
        },
        "eval_jac":{
            "type": "boolean"
        },
        "n_processes": {
        	"type" : "integer",
        	"minimum":1
        },
        "wait_time_between_samples": {
        	"type" : "number",
        	"minimum":0
        },
        "seed": {
                "type" : "integer",
                "minimum":1
        },
		"max_time": {
            "type": "number",
             "minimum": 0.0
        }
    },
    "$schema": "http://json-schema.org/draft-04/schema",
    "additionalProperties": false,
    "type": "object"
}
